16-02 - 12:25:52.210  |  Starting... command:export set:Persoon* folder_in:Import folder_out:Persoon conn:Password=12345;Persist Security Info=True;User ID=sa;Initial Catalog=XDocuments3;Data Source=(LOCAL)
16-02 - 12:25:52.476  |   - exporting Persoon_GET
16-02 - 12:25:52.507  |   - exporting Persoon_ID_Adres_GET
16-02 - 12:25:52.523  |   - exporting Persoon_ID_DELETE
16-02 - 12:25:52.554  |   - exporting Persoon_ID_GET
16-02 - 12:25:52.554  |   - exporting Persoon_ID_POST
16-02 - 12:25:52.569  |   - exporting Persoon_POST
16-02 - 12:25:52.585  |  Success.  027787ee
